R Practitioner
…
---

### Omdøb søjler

`rename()` tager data som første argument og det nye søjle-navn sat lig med det gamle.

```r
rename(avocados, average_price = AveragePrice)
```

```
## # A tibble: 18,249 x 15
##    Date       average_price total_volume `4046` `4225` `4770` `Total Bags`
##    <date>             <dbl>        <dbl>  <dbl>  <dbl>  <dbl>        <dbl>
##  1 2015-12-27          1.33       64237.  1037. 5.45e4   48.2        8697.
##  2 2015-12-20          1.35       54877.   674. 4.46e4   58.3        9506.
##  3 2015-12-13          0.93      118220.   795. 1.09e5  130.         8145.
##  4 2015-12-06          1.08       78992.  1132  7.20e4   72.6        5811.
##  5 2015-11-29          1.28       51040.   941. 4.38e4   75.8        6184.
##  6 2015-11-22          1.26       55980.  1184. 4.81e4   43.6        6684.
##  7 2015-11-15          0.99       83454.  1369. 7.37e4   93.3        8319.
##  8 2015-11-08          0.98      109428.   704. 1.02e5   80          6829.
##  9 2015-11-01          1.02       99811.  1022. 8.73e4   85.3       11388.
## 10 2015-10-25          1.07       74339.   842. 6.48e4  113          8626.
## # ... with 18,239 more rows, and 8 more variables: `Small Bags` <dbl>,
## #   `Large Bags` <dbl>, `XLarge Bags` <dbl>, type <chr>, year <dbl>,
## #   region <chr>, month <dbl>, day <dbl>
```
…
--- 

### Grupper data med `group_by()`

`group_by()` tager data som første argument og efterfølgende hvilke søjler der skal grupperes på.

```r
by_region <- group_by(avocados, region,year)
summarise(by_region, avgprice = mean(AveragePrice, na.rm = TRUE))
```

```
## # A tibble: 216 x 3
## # Groups:   region [?]
##    region               year avgprice
##    <chr>               <dbl>    <dbl>
##  1 Albany               2015     1.54
##  2 Albany               2016     1.53
##  3 Albany               2017     1.64
##  4 Albany               2018     1.44
##  5 Atlanta              2015     1.38
##  6 Atlanta              2016     1.21
##  7 Atlanta              2017     1.43
##  8 Atlanta              2018     1.29
##  9 BaltimoreWashington  2015     1.37
## 10 BaltimoreWashington  2016     1.59
## # ... with 206 more rows
```
…
